Take-home Exercise 1 – Mapping the Unseen
…
list(acc)

[[1]]
Simple feature collection with 81376 features and 19 fields
Geometry type: POINT
Dimension:     XY
Bounding box:  xmin: -16183190 ymin: -936.228 xmax: 1200243 ymax: 4918525
Projected CRS: WGS 84 / UTM zone 47N
# A tibble: 81,376 × 20
   acc_code incident_datetime   report_datetime     province_th province_en     
 *    <dbl> <dttm>              <dttm>              <chr>       <chr>           
 1   571905 2019-01-01 00:00:00 2019-01-02 06:11:00 ลพบุรี        Loburi          
 2  3790870 2019-01-01 00:03:00 2020-02-20 13:48:00 อุบลราชธานี   Ubon Ratchathani
 3   599075 2019-01-01 00:05:00 2019-01-01 10:35:00 ประจวบคีรีขันธ์ Prachuap Khiri …
 4   571924 2019-01-01 00:20:00 2019-01-02 05:12:00 เชียงใหม่     Chiang Mai      
 5   599523 2019-01-01 00:25:00 2019-01-04 09:42:00 นครสวรรค์    Nakhon Sawan    
 6   571982 2019-01-01 00:30:00 2019-01-07 12:46:00 แม่ฮ่องสอน    Mae Hong Son    
 7   612782 2019-01-01 00:30:00 2019-10-25 14:25:00 ชุมพร        Chumphon        
 8   599235 2019-01-01 00:35:00 2019-01-02 16:23:00 สิงห์บุรี       Sing Buri       
 9   600643 2019-01-01 00:40:00 2019-01-11 10:01:00 สงขลา       Songkhla        
10   599105 2019-01-01 00:45:00 2019-01-01 10:11:00 ตราด        Trat            
# ℹ 81,366 more rows
# ℹ 15 more variables: agency <chr>, route <chr>, vehicle_type <chr>,
#   presumed_cause <chr>, accident_type <chr>,
#   number_of_vehicles_involved <dbl>, number_of_fatalities <dbl>,
#   number_of_injuries <dbl>, weather_condition <chr>, road_description <chr>,
#   slope_description <chr>, Month_num <dbl>, Month_fac <ord>, dayofweek <int>,
#   geometry <POINT [m]>
…
# Aggregate accident counts by presumed cause
straight_road_accident_causes_aggregated <- straight_road_accidents %>%
  group_by(presumed_cause) %>%
  summarise(total_accidents = n()) %>%
  arrange(desc(total_accidents))

# View the aggregated data in descending order
print(straight_road_accident_causes_aggregated)

Simple feature collection with 36 features and 2 fields
Geometry type: GEOMETRY
Dimension:     XY
Bounding box:  xmin: 591277.5 ymin: 1486846 xmax: 710166.1 ymax: 1576520
Projected CRS: WGS 84 / UTM zone 47N
# A tibble: 36 × 3
   presumed_cause                      total_accidents                  geometry
   <chr>                                         <int>          <MULTIPOINT [m]>
 1 speeding                                       8829 ((593843.8 1550868), (59…
 2 other                                           716 ((624456.5 1494214), (63…
 3 cutting in closely by people/vehic…             529 ((595540.6 1542724), (60…
 4 vehicle equipment failure                       325 ((606366 1562577), (6066…
 5 falling asleep                                  189 ((597876.3 1547500), (60…
 6 driving under the influence of alc…              95 ((607471.8 1545956), (61…
 7 tailgating                                       67 ((622420.1 1491733), (64…
 8 running red lights/traffic signals               62 ((611111.8 1526277), (62…
 9 abrupt lane change                               42 ((603057.8 1533623), (63…
10 illegal overtaking                               41 ((622895.3 1508505), (62…
# ℹ 26 more rows
…
